module gitlab.com/beldeveloper/go-libs

go 1.21

require (
	github.com/avast/retry-go/v4 v4.6.0
	github.com/dgrijalva/jwt-go v3.2.0+incompatible
	github.com/gin-gonic/gin v1.8.1
	github.com/go-playground/validator/v10 v10.10.0
	github.com/google/uuid v1.4.0
	github.com/jackc/pgx/v5 v5.4.3
	github.com/nyaruka/phonenumbers v1.1.8
	go.mongodb.org/mongo-driver v1.12.1
	go.opentelemetry.io/otel v1.19.0
	go.opentelemetry.io/otel/exporters/jaeger v1.17.0
	go.opentelemetry.io/otel/sdk v1.19.0
	go.opentelemetry.io/otel/trace v1.19.0
	go.uber.org/zap v1.26.0
	golang.org/x/exp v0.0.0-20231006140011-7918f672742d
)

require (
	github.com/gin-contrib/sse v0.1.0 // indirect
	github.com/go-logr/logr v1.2.4 // indirect
	github.com/go-logr/stdr v1.2.2 // indirect
	github.com/go-playground/locales v0.14.0 // indirect
	github.com/go-playground/universal-translator v0.18.0 // indirect
	github.com/goccy/go-json v0.9.7 // indirect
	github.com/golang/protobuf v1.5.0 // indirect
	github.com/golang/snappy v0.0.1 // indirect
	github.com/jackc/pgpassfile v1.0.0 // indirect
	github.com/jackc/pgservicefile v0.0.0-20221227161230-091c0ba34f0a // indirect
	github.com/jackc/puddle/v2 v2.2.1 // indirect
	github.com/json-iterator/go v1.1.12 // indirect
	github.com/klauspost/compress v1.13.6 // indirect
	github.com/leodido/go-urn v1.2.1 // indirect
	github.com/mattn/go-isatty v0.0.14 // indirect
	github.com/modern-go/concurrent v0.0.0-20180228061459-e0a39a4cb421 // indirect
	github.com/modern-go/reflect2 v1.0.2 // indirect
	github.com/montanaflynn/stats v0.0.0-20171201202039-1bf9dbcd8cbe // indirect
	github.com/pelletier/go-toml/v2 v2.0.1 // indirect
	github.com/ugorji/go/codec v1.2.7 // indirect
	github.com/xdg-go/pbkdf2 v1.0.0 // indirect
	github.com/xdg-go/scram v1.1.2 // indirect
	github.com/xdg-go/stringprep v1.0.4 // indirect
	github.com/youmark/pkcs8 v0.0.0-20181117223130-1be2e3e5546d // indirect
	go.opentelemetry.io/otel/metric v1.19.0 // indirect
	go.uber.org/multierr v1.10.0 // indirect
	golang.org/x/crypto v0.9.0 // indirect
	golang.org/x/net v0.10.0 // indirect
	golang.org/x/sync v0.1.0 // indirect
	golang.org/x/sys v0.13.0 // indirect
	golang.org/x/text v0.9.0 // indirect
	google.golang.org/protobuf v1.28.0 // indirect
	gopkg.in/yaml.v2 v2.4.0 // indirect
)
